{
  "apiUrl": "http://127.0.0.1:8000/api",
  "gaIds": "ga:99388849",
  "S3": {
    "bucketUpload": "aq2lx-upload",
    "bucketRegion": "ap-southeast-1",
    "IdentityPoolId": "ap-southeast-1:3dcda8bb-d222-4261-8126-9b1f3069836f"
  },
  "plan": [
    {
      "id": 0,
      "name": "Free",
      "products": 1,
      "promotions": 0,
      "color": "#90dcdc"
    },
    {
      "id": 1,
      "name": "Silver",
      "products": 2,
      "promotions": 0,
      "color": "#8a8c8e"
    },
    {
      "id": 2,
      "name": "Gold",
      "products": 2,
      "promotions": 0,
      "color": "#deba24"
    },
    {
      "id": 3,
      "name": "Premium",
      "products": "unlimit",
      "promotions": 0,
      "color": "#000"
    },
    {
      "id": 4,
      "name": "Hot Deal",
      "products": "unlimit",
      "promotions": 0,
      "color": "#ba0202"
    }
  ],
  "supportLanguages": [
    { "code": "tha", "name": "Thai" },
    { "code": "eng", "name": "English" },
    { "code": "ara", "name": "Arabic" },
    { "code": "mya", "name": "Burmese" },
    { "code": "zho", "name": "Chinese" },
    { "code": "fra", "name": "French" },
    { "code": "deu", "name": "German" },
    { "code": "heb", "name": "Hebrew" },
    { "code": "hin", "name": "Hindi" },
    { "code": "hun", "name": "Hungarian" },
    { "code": "ind", "name": "Indonesian" },
    { "code": "jpn", "name": "Japanese" },
    { "code": "kor", "name": "Korean" },
    { "code": "lao", "name": "Lao" },
    { "code": "mal", "name": "Malayalam" },
    { "code": "msa", "name": "Malay" },
    { "code": "mfa", "name": "Pattani Malay" },
    { "code": "por", "name": "Portuguese" },
    { "code": "rus", "name": "Russian" },
    { "code": "spa", "name": "Spanish" },
    { "code": "swe", "name": "Swedish" },
    { "code": "urd", "name": "Urdu" },
    { "code": "vie", "name": "Vietnamese" }
  ]
}
